{
	"content":[
		{
			"groupType":"avocation",
			"name":"古典舞",
			"id":"402881ed649d628e01649d636ea7005b"
		},
		{
			"groupType":"avocation",
			"name":"爵士舞",
			"id":"402881ed649d628e01649d636ea70057"
		},
		{
			"groupType":"avocation",
			"name":"民族舞",
			"id":"402881ed649d628e01649d636ea7005a"
		},
		{
			"groupType":"avocation",
			"name":"中国舞",
			"id":"ff80808167bef94f0167bf6f6e0a1fd2"
		},
		{
			"groupType":"avocation",
			"name":"街舞",
			"id":"402881ed649d628e01649d636ea60056"
		},
		{
			"groupType":"avocation",
			"name":"舞蹈",
			"id":"ff80808167cb37250167cc06bbec356a"
		},
		{
			"groupType":"avocation",
			"name":"流行热舞",
			"id":"402881ed649d628e01649d636ea80065"
		},
		{
			"groupType":"avocation",
			"name":"芭蕾舞",
			"id":"402881ed649d628e01649d636ea70059"
		},
		{
			"groupType":"avocation",
			"name":"现代舞",
			"id":"402881ed649d628e01649d636ea70058"
		},
		{
			"groupType":"avocation",
			"name":"舞蹈教学",
			"id":"ff80808167d9e1280167e45526397383"
		},
		{
			"groupType":"avocation",
			"name":"少儿舞蹈",
			"id":"402881ed649d628e01649d636ea80067"
		},
		{
			"groupType":"avocation",
			"name":"拉丁舞",
			"id":"402881ed649d628e01649d636ea7005c"
		},
		{
			"groupType":"avocation",
			"name":"舞蹈学习",
			"id":"ff8080816821555e016827cff049029e"
		},
		{
			"groupType":"avocation",
			"name":"原创编舞",
			"id":"ff80808167d9dd620167e457f899789a"
		},
		{
			"groupType":"avocation",
			"name":"广场舞",
			"id":"402881ed649d628e01649d636ea60055"
		},
		{
			"groupType":"avocation",
			"name":"成人舞蹈",
			"id":"ff8080816960e987016962b2af0f5323"
		},
		{
			"groupType":"avocation",
			"name":"肚皮舞",
			"id":"402881ed649d628e01649d636ea7005f"
		},
		{
			"groupType":"avocation",
			"name":"热门舞蹈",
			"id":"ff808081683f378701687690e06e66ac"
		},
		{
			"groupType":"avocation",
			"name":"中国风",
			"id":"ff80808167c026c90167c1fbde74258b"
		},
		{
			"groupType":"avocation",
			"name":"摩登舞",
			"id":"402881ed649d628e01649d636ea7005d"
		}
	],
	"first":true,
	"last":false,
	"number":0,
	"numberOfElements":20,
	"offset":null,
	"size":20,
	"sort":null,
	"statistics":null,
	"totalElements":2014,
	"totalPages":101,
	"useOffset":false
}