{
    "content": [
        {
            "momentSubject": "video",
            "creator": "ff808081844238cc01844c5f4c193637",
            "createTime": 1667824290430,
            "momentBackup": {
                "cover": [
                    "https://rs.dance365.com/photo/c9bd476ca8384c1c9f3d4725f32927aa_rs_b441b7b231824b24964ec892ac0510ca.jpg"
                ],
                "creator": "ff8080816ce1be74016d34ee3dcb7e78",
                "router": "wudao://dance365.com/detail/video?momentId=a0d730522999419db942e13e604ca852&source=mine_view_record",
                "creatorBackup": {
                    "certificationType": "personal",
                    "level": 9,
                    "name": "1394520_kM7U",
                    "vipExpireTime": 1613404799625,
                    "avatar": "https://rs.dance365.com/default_head@3x.png",
                    "id": "ff8080816ce1be74016d34ee3dcb7e78",
                    "vipGrade": 0
                },
                "momentClassificationBackup": {
                    "workTitle": "九儿背面完整版",
                    "classification": "information"
                }
            },
            "momentTitle": "九儿背面完整版",
            "updateTime": 1667870280691,
            "id": "fff018452130a7f00001844238dc3171",
            "momentId": "a0d730522999419db942e13e604ca852",
            "ischecked": true
        },
        {
            "momentSubject": "video",
            "creator": "ff808081844238cc01844c5f4c193637",
            "createTime": 1667824274629,
            "momentBackup": {
                "cover": [
                    "https://rs.dance365.com/photo/5d39bfacd8b54f49ad8d32388419f0eb_rs_dc3b10b316cf47c2a6279cd76e5c0851.jpg"
                ],
                "creator": "ff8080816ce1be74016d34ee3dcb7e78",
                "router": "wudao://dance365.com/detail/video?momentId=05eba2a26b3b4052bafd77e324aa883a&source=mine_view_record",
                "creatorBackup": {
                    "certificationType": "personal",
                    "level": 9,
                    "name": "1394520_kM7U",
                    "vipExpireTime": 1613404799625,
                    "avatar": "https://rs.dance365.com/default_head@3x.png",
                    "id": "ff8080816ce1be74016d34ee3dcb7e78",
                    "vipGrade": 0
                },
                "momentClassificationBackup": {
                    "workTitle": "九儿4-1",
                    "classification": "information"
                }
            },
            "momentTitle": "九儿4-1",
            "updateTime": 1667824274629,
            "id": "fff01845212ccc600001844238cc1c11",
            "momentId": "05eba2a26b3b4052bafd77e324aa883a",
            "ischecked": true
        },
        {
            "momentSubject": "video",
            "creator": "ff808081844238cc01844c5f4c193637",
            "createTime": 1667824260203,
            "momentBackup": {
                "cover": [
                    "https://rs.dance365.com/photo/a8fdd2cac29945d1b02ad27340bca118_rs_ffadb515c10f4832b5ee975d00922c23.jpg"
                ],
                "creator": "ff8080816ce1be74016d34ee3dcb7e78",
                "router": "wudao://dance365.com/detail/video?momentId=f5f28a4680f34899a8f06fe281a6ba96&source=mine_view_record",
                "creatorBackup": {
                    "certificationType": "personal",
                    "level": 9,
                    "name": "1394520_kM7U",
                    "vipExpireTime": 1613404799625,
                    "avatar": "https://rs.dance365.com/default_head@3x.png",
                    "id": "ff8080816ce1be74016d34ee3dcb7e78",
                    "vipGrade": 0
                },
                "momentClassificationBackup": {
                    "workTitle": "九儿2-2",
                    "classification": "information"
                }
            },
            "momentTitle": "九儿2-2",
            "updateTime": 1667824260203,
            "id": "fff01845212946b00001844238cc1980",
            "momentId": "f5f28a4680f34899a8f06fe281a6ba96",
            "ischecked": true
        },
        {
            "momentSubject": "video",
            "creator": "ff808081844238cc01844c5f4c193637",
            "createTime": 1667824253371,
            "momentBackup": {
                "cover": [
                    "https://rs.dance365.com/photo/b4983f597874440983d25144b9deda44_rs_caaa61488b1b437ba4999998ed7763f6.jpg"
                ],
                "creator": "ff8080816ce1be74016d34ee3dcb7e78",
                "router": "wudao://dance365.com/detail/video?momentId=cdc5f895be5341a498a8696fd1191e7b&source=mine_view_record",
                "creatorBackup": {
                    "certificationType": "personal",
                    "level": 9,
                    "name": "1394520_kM7U",
                    "vipExpireTime": 1613404799625,
                    "avatar": "https://rs.dance365.com/default_head@3x.png",
                    "id": "ff8080816ce1be74016d34ee3dcb7e78",
                    "vipGrade": 0
                },
                "momentClassificationBackup": {
                    "workTitle": "九儿2-1",
                    "classification": "information"
                }
            },
            "momentTitle": "九儿2-1",
            "updateTime": 1667824253371,
            "id": "fff0184521279bb00001844238cc1826",
            "momentId": "cdc5f895be5341a498a8696fd1191e7b",
            "ischecked": true
        },
        {
            "momentSubject": "video",
            "creator": "ff808081844238cc01844c5f4c193637",
            "createTime": 1667824247480,
            "momentBackup": {
                "cover": [
                    "https://rs.dance365.com/photo/36d0d939b93d46bc965562cee45e1dcf_rs_5c143858fb7d4014a7ff0bbdccba6bf7.jpg"
                ],
                "creator": "ff8080816ce1be74016d34ee3dcb7e78",
                "router": "wudao://dance365.com/detail/video?momentId=2e9c94de53864c14b10e47c4882c9e05&source=mine_view_record",
                "creatorBackup": {
                    "certificationType": "personal",
                    "level": 9,
                    "name": "1394520_kM7U",
                    "vipExpireTime": 1613404799625,
                    "avatar": "https://rs.dance365.com/default_head@3x.png",
                    "id": "ff8080816ce1be74016d34ee3dcb7e78",
                    "vipGrade": 0
                },
                "momentClassificationBackup": {
                    "workTitle": "九儿1-1",
                    "classification": "information"
                }
            },
            "momentTitle": "九儿1-1",
            "updateTime": 1667824247480,
            "id": "fff0184521262b800001844238cc16f8",
            "momentId": "2e9c94de53864c14b10e47c4882c9e05",
            "ischecked": true
        },
        {
            "momentSubject": "video",
            "creator": "ff808081844238cc01844c5f4c193637",
            "createTime": 1667824238779,
            "momentBackup": {
                "cover": [
                    "https://rs.dance365.com/photo/1594711807864_1594711798890"
                ],
                "creator": "ff80808172a180560172bbab3c304d88",
                "router": "wudao://dance365.com/detail/video?momentId=a3bd77294f0948909396c6bb8a708f48&source=mine_view_record",
                "creatorBackup": {
                    "level": 22,
                    "name": "喜欢跳舞的某某",
                    "vipExpireTime": 1612540799623,
                    "avatar": "https://rs.dance365.com/photo/fbd6eb50-73e2-4305-adb6-b6b017d23b93.jpg",
                    "id": "ff80808172a180560172bbab3c304d88",
                    "vipGrade": 0
                },
                "momentClassificationBackup": {
                    "workTitle": "基本功课堂 一字马 竖叉",
                    "classification": "course"
                }
            },
            "momentTitle": "基本功课堂 一字马 竖叉",
            "updateTime": 1667824238779,
            "id": "fff0184521240bc00001844238cc1570",
            "momentId": "a3bd77294f0948909396c6bb8a708f48",
            "ischecked": true
        },
        {
            "momentSubject": "video",
            "creator": "ff808081844238cc01844c5f4c193637",
            "createTime": 1667824230180,
            "momentBackup": {
                "cover": [
                    "https://rs.dance365.com/photo/xxx_1592299878993_1592299873562"
                ],
                "creator": "ff80808172a180560172bbab3c304d88",
                "router": "wudao://dance365.com/detail/video?momentId=3a85dca467ea4c1193f301ec6a71fbb5&source=mine_view_record",
                "creatorBackup": {
                    "level": 22,
                    "name": "喜欢跳舞的某某",
                    "vipExpireTime": 1612540799623,
                    "avatar": "https://rs.dance365.com/photo/fbd6eb50-73e2-4305-adb6-b6b017d23b93.jpg",
                    "id": "ff80808172a180560172bbab3c304d88",
                    "vipGrade": 0
                },
                "momentClassificationBackup": {
                    "workTitle": "21天！告别假胯宽 解锁一字马｜基本功练习【零基础】",
                    "classification": "course"
                }
            },
            "momentTitle": "21天！告别假胯宽 解锁一字马｜基本功练习【零基础】",
            "updateTime": 1667824230180,
            "id": "fff018452121f2400001844238dc25b6",
            "momentId": "3a85dca467ea4c1193f301ec6a71fbb5",
            "ischecked": true
        },
        {
            "momentSubject": "video",
            "creator": "ff808081844238cc01844c5f4c193637",
            "createTime": 1667824214511,
            "momentBackup": {
                "cover": [
                    "https://rs.dance365.com/photo/xxx_1561967519484_1561967517090.png"
                ],
                "creator": "369239",
                "router": "wudao://dance365.com/detail/video?momentId=dd1095b19677442387454b1bad3c7c29&source=mine_view_record",
                "creatorBackup": {
                    "level": 33,
                    "name": "一个跳舞的人",
                    "avatar": "https://images-la.dance365.com/1495878873716CWMO299253gmg7ry6ru.jpg",
                    "id": "369239",
                    "vipGrade": 0
                },
                "momentClassificationBackup": {
                    "workTitle": "王诗意原创古典舞《放灯行》",
                    "classification": "original"
                }
            },
            "momentTitle": "王诗意原创古典舞《放灯行》",
            "updateTime": 1667824214511,
            "id": "fff01845211e1f000001844238dc22aa",
            "momentId": "dd1095b19677442387454b1bad3c7c29",
            "ischecked": true
        },
        {
            "momentSubject": "video",
            "creator": "ff808081844238cc01844c5f4c193637",
            "createTime": 1667824202554,
            "momentBackup": {
                "cover": [
                    "https://rs.dance365.com/photo/1629691031740_1629691028381"
                ],
                "creator": "13282",
                "router": "wudao://dance365.com/detail/video?momentId=e6da570fad3c4c049bb6e356f28f2580&source=mine_view_record",
                "creatorBackup": {
                    "level": 20,
                    "name": "快乐分享小舞者",
                    "avatar": "https://rs.dance365.com/photo/1629337269131_1475909452000",
                    "id": "13282",
                    "vipGrade": 0
                },
                "momentClassificationBackup": {
                    "workTitle": "放灯行",
                    "classification": "course"
                }
            },
            "momentTitle": "放灯行",
            "updateTime": 1667824202554,
            "id": "fff01845211b33a00001844238cc0ed2",
            "momentId": "e6da570fad3c4c049bb6e356f28f2580",
            "ischecked": true
        },
        {
            "momentSubject": "video",
            "creator": "ff808081844238cc01844c5f4c193637",
            "createTime": 1667808487378,
            "momentBackup": {
                "cover": [
                    "https://rs.dance365.com/photo/0feb9cc11b604e358ce9f0cd17cb38a5_rs_b6cc9d0c2cd24235869d077a1d6acd46"
                ],
                "creator": "ff80808170f749b201710364d6fa7e8a",
                "router": "wudao://dance365.com/detail/video?momentId=b642fd7e6b67439a85912f6836243948&source=mine_view_record",
                "creatorBackup": {
                    "level": 5,
                    "name": "Subsequentlyg5fS",
                    "avatar": "https://rs.dance365.com/photo/685982536b83490892ae07b5c785a1ed_rs_323e4891c23d4edaa8a083b8837859a4",
                    "id": "ff80808170f749b201710364d6fa7e8a",
                    "vipGrade": 0
                },
                "momentClassificationBackup": {
                    "workTitle": "《万疆》零基础",
                    "classification": "information"
                }
            },
            "momentTitle": "《万疆》零基础",
            "updateTime": 1667809218478,
            "id": "fff01845121e7d300001844238dc4194",
            "momentId": "b642fd7e6b67439a85912f6836243948",
            "ischecked": true
        }
    ],
    "first": true,
    "last": false,
    "number": 0,
    "numberOfElements": 10,
    "offset": null,
    "size": 10,
    "sort": null,
    "statistics": null,
    "totalElements": 14,
    "totalPages": 2,
    "useOffset": false
}
